%YAML 1.1
%TAG !u! tag:unity3d.com,2011:
--- !u!1 &2198969318463841829
GameObject:
  m_ObjectHideFlags: 0
  m_CorrespondingSourceObject: {fileID: 0}
  m_PrefabInstance: {fileID: 0}
  m_PrefabAsset: {fileID: 0}
  serializedVersion: 6
  m_Component:
  - component: {fileID: 2198969318463841831}
  - component: {fileID: 2198969318463841828}
  m_Layer: 0
  m_Name: expirenceManager
  m_TagString: Untagged
  m_Icon: {fileID: 0}
  m_NavMeshLayer: 0
  m_StaticEditorFlags: 0
  m_IsActive: 1
--- !u!4 &2198969318463841831
Transform:
  m_ObjectHideFlags: 0
  m_CorrespondingSourceObject: {fileID: 0}
  m_PrefabInstance: {fileID: 0}
  m_PrefabAsset: {fileID: 0}
  m_GameObject: {fileID: 2198969318463841829}
  m_LocalRotation: {x: 0, y: 0, z: 0, w: 1}
  m_LocalPosition: {x: 405.25266, y: -69.4733, z: 108.71615}
  m_LocalScale: {x: 1, y: 1, z: 1}
  m_Children: []
  m_Father: {fileID: 0}
  m_RootOrder: 0
  m_LocalEulerAnglesHint: {x: 0, y: 0, z: 0}
--- !u!114 &2198969318463841828
MonoBehaviour:
  m_ObjectHideFlags: 0
  m_CorrespondingSourceObject: {fileID: 0}
  m_PrefabInstance: {fileID: 0}
  m_PrefabAsset: {fileID: 0}
  m_GameObject: {fileID: 2198969318463841829}
  m_Enabled: 1
  m_EditorHideFlags: 0
  m_Script: {fileID: 11500000, guid: 0145ed46277123844afa479b072a30ed, type: 3}
  m_Name: 
  m_EditorClassIdentifier: 
  levelLists:
  - level: 1
    requiredXP: 0
    respawnTime: 6
    xpBounty: 55
  - level: 2
    requiredXP: 230
    respawnTime: 8
    xpBounty: 95
  - level: 3
    requiredXP: 600
    respawnTime: 10
    xpBounty: 150
  - level: 4
    requiredXP: 1080
    respawnTime: 14
    xpBounty: 220
  - level: 5
    requiredXP: 1660
    respawnTime: 16
    xpBounty: 295
  - level: 6
    requiredXP: 2260
    respawnTime: 26
    xpBounty: 380
  - level: 7
    requiredXP: 2980
    respawnTime: 28
    xpBounty: 475
  - level: 8
    requiredXP: 3730
    respawnTime: 30
    xpBounty: 575
  - level: 9
    requiredXP: 4510
    respawnTime: 32
    xpBounty: 680
  - level: 10
    requiredXP: 5320
    respawnTime: 34
    xpBounty: 785
  - level: 11
    requiredXP: 6160
    respawnTime: 36
    xpBounty: 895
  - level: 12
    requiredXP: 7030
    respawnTime: 44
    xpBounty: 1010
  - level: 13
    requiredXP: 7930
    respawnTime: 46
    xpBounty: 1150
  - level: 14
    requiredXP: 9155
    respawnTime: 48
    xpBounty: 1311
  - level: 15
    requiredXP: 10405
    respawnTime: 50
    xpBounty: 1475
  - level: 16
    requiredXP: 11680
    respawnTime: 52
    xpBounty: 1640
  - level: 17
    requiredXP: 12980
    respawnTime: 54
    xpBounty: 1815
  - level: 18
    requiredXP: 14305
    respawnTime: 65
    xpBounty: 2000
  - level: 19
    requiredXP: 15805
    respawnTime: 70
    xpBounty: 2200
  - level: 20
    requiredXP: 17395
    respawnTime: 75
    xpBounty: 2405
  - level: 21
    requiredXP: 18995
    respawnTime: 80
    xpBounty: 2630
  - level: 22
    requiredXP: 20845
    respawnTime: 85
    xpBounty: 2885
  - level: 23
    requiredXP: 22945
    respawnTime: 90
    xpBounty: 3175
  - level: 24
    requiredXP: 25295
    respawnTime: 95
    xpBounty: 3500
  - level: 25
    requiredXP: 27895
    respawnTime: 100
    xpBounty: 3665
