%YAML 1.1
%TAG !u! tag:unity3d.com,2011:
--- !u!114 &11400000
MonoBehaviour:
  m_ObjectHideFlags: 0
  m_CorrespondingSourceObject: {fileID: 0}
  m_PrefabInstance: {fileID: 0}
  m_PrefabAsset: {fileID: 0}
  m_GameObject: {fileID: 0}
  m_Enabled: 1
  m_EditorHideFlags: 0
  m_Script: {fileID: 11500000, guid: 32cad3ee45dd4f14394b9b6317767a7c, type: 3}
  m_Name: Venge Armor Debuff
  m_EditorClassIdentifier: 
  BuffName: Vengeance Aura
  StackType: 2
  InfiniteDuration: 1
  Duration: 0
  Lifetime: 0
  BuffInterval: 0
  CurrentStacks: 1
  Reduction: 5
